﻿Сборка начата 02.12.2015 20:12:25.
     1>Проект "C:\Users\User\Documents\Visual Studio 2015\Projects\Float1\Float1\Float1.vcxproj" в узле 2 (целевые объекты Build).
     1>ClCompile:
         C:\Program Files (x86)\Microsoft Visual Studio 14.0\VC\bin\CL.exe /c /Ic:\opencv\build\x86\vc12\..\..\include /ZI /nologo /W3 /WX- /sdl /Od /Oy- /D WIN32 /D _DEBUG /D _CONSOLE /D _UNICODE /D UNICODE /Gm /EHsc /RTC1 /MDd /GS /fp:precise /Zc:wchar_t /Zc:forScope /Zc:inline /Fo"Debug\\" /Fd"Debug\vc140.pdb" /Gd /TP /analyze- /errorReport:prompt Source.cpp
         Source.cpp
     1>c:\users\user\documents\visual studio 2015\projects\float1\float1\source.cpp(45): warning C4244: инициализация: преобразование "float" в "int", возможна потеря данных
     1>c:\users\user\documents\visual studio 2015\projects\float1\float1\source.cpp(48): warning C4244: =: преобразование "float" в "int", возможна потеря данных
     1>c:\users\user\documents\visual studio 2015\projects\float1\float1\source.cpp(57): warning C4244: инициализация: преобразование "float" в "int", возможна потеря данных
     1>c:\users\user\documents\visual studio 2015\projects\float1\float1\source.cpp(60): warning C4244: =: преобразование "float" в "int", возможна потеря данных
     1>c:\users\user\documents\visual studio 2015\projects\float1\float1\source.cpp(12): warning C4101: t: неиспользованная локальная переменная
       Link:
         C:\Program Files (x86)\Microsoft Visual Studio 14.0\VC\bin\link.exe /ERRORREPORT:PROMPT /OUT:"C:\Users\User\Documents\Visual Studio 2015\Projects\Float1\Debug\Float1.exe" /INCREMENTAL /NOLOGO /LIBPATH:c:\opencv\build\x86\vc12\lib opencv_ts300d.lib opencv_world300d.lib kernel32.lib user32.lib gdi32.lib winspool.lib comdlg32.lib advapi32.lib shell32.lib ole32.lib oleaut32.lib uuid.lib odbc32.lib odbccp32.lib /MANIFEST /MANIFESTUAC:"level='asInvoker' uiAccess='false'" /manifest:embed /Debug /PDB:"C:\Users\User\Documents\Visual Studio 2015\Projects\Float1\Debug\Float1.pdb" /SUBSYSTEM:CONSOLE /TLBID:1 /DYNAMICBASE /NXCOMPAT /IMPLIB:"C:\Users\User\Documents\Visual Studio 2015\Projects\Float1\Debug\Float1.lib" /MACHINE:X86 Debug\Source.obj
         Float1.vcxproj -> C:\Users\User\Documents\Visual Studio 2015\Projects\Float1\Debug\Float1.exe
     1>Сборка проекта "C:\Users\User\Documents\Visual Studio 2015\Projects\Float1\Float1\Float1.vcxproj" завершена (целевые объекты Build).

Сборка успешно завершена.

Затраченное время: 00:00:01.87
